…
```
## The following objects are masked from 'package:base':
## 
##     intersect, setdiff, setequal, union
```

```r
activityData <- group_by(activityData, date)

activityData2 <- summarize(activityData, total_steps = sum(steps, na.rm=TRUE))
print(activityData2)
```

```
## # A tibble: 61 x 2
##    date       total_steps
##    <fct>            <int>
##  1 2012-10-01           0
##  2 2012-10-02         126
##  3 2012-10-03       11352
##  4 2012-10-04       12116
##  5 2012-10-05       13294
##  6 2012-10-06       15420
##  7 2012-10-07       11015
##  8 2012-10-08           0
##  9 2012-10-09       12811
## 10 2012-10-10        9900
## # … with 51 more rows
```
…
## What is the average daily activity pattern?

Next, we'll use the group_by function to create a dataset that is grouped by 5 minute interval, across days. Then we'll use the summarize function to calculate the average number of steps for each interval, and save these means in a new dataset. We'll print out this dataset.


```r
activityData3 <- group_by(activityData, interval)

activityData4 <- summarize(activityData3, mean_int_steps = mean(steps, na.rm=TRUE))
print(activityData4)
```

```
## # A tibble: 288 x 2
##    interval mean_int_steps
##       <int>          <dbl>
##  1        0         1.72  
##  2        5         0.340 
##  3       10         0.132 
##  4       15         0.151 
##  5       20         0.0755
##  6       25         2.09  
##  7       30         0.528 
##  8       35         0.868 
##  9       40         0     
## 10       45         1.47  
## # … with 278 more rows
```
…
Next, we'll use the group_by function on the imputed dataset to create a dataset that groups the records by date. Then we'll use the summarize function on this new dataset to calculate the sum of steps for each day, and save these totals in a new dataset. We'll print out the first few rows of this as well.


```r
merged_activityData <- group_by(merged_activityData, date)

merged_activityData2 <- summarize(merged_activityData, total_steps_imp = sum(steps_imp, na.rm=TRUE))
print(merged_activityData2)
```

```
## # A tibble: 61 x 2
##    date       total_steps_imp
##    <fct>                <dbl>
##  1 2012-10-01          10766.
##  2 2012-10-02            126 
##  3 2012-10-03          11352 
##  4 2012-10-04          12116 
##  5 2012-10-05          13294 
##  6 2012-10-06          15420 
##  7 2012-10-07          11015 
##  8 2012-10-08          10766.
##  9 2012-10-09          12811 
## 10 2012-10-10           9900 
## # … with 51 more rows
```
…
Next, we can group by the type of day (weekend vs. weekday) in preparation for a new plot.

```r
merged_activityData3 <- group_by(merged_activityData3, day_type, interval)

merged_activityData4 <- summarize(merged_activityData3, mean_int_steps = mean(steps_imp, na.rm=TRUE))
print(merged_activityData4)
```

```
## # A tibble: 576 x 3
## # Groups:   day_type [2]
##    day_type interval mean_int_steps
##    <fct>       <int>          <dbl>
##  1 weekdays        0         2.25  
##  2 weekdays        5         0.445 
##  3 weekdays       10         0.173 
##  4 weekdays       15         0.198 
##  5 weekdays       20         0.0990
##  6 weekdays       25         1.59  
##  7 weekdays       30         0.693 
##  8 weekdays       35         1.14  
##  9 weekdays       40         0     
## 10 weekdays       45         1.80  
## # … with 566 more rows
```
…
